Categories:Theming
License:GPL-3.0-only
Web Site:https://xphnx.github.io/fento-suite
Source Code:https://gitlab.com/xphnx/ameixa
Issue Tracker:https://gitlab.com/xphnx/ameixa/issues

Auto Name:Ameixa
Summary:Port of TwelF CMTheme for many launchers
Description:
TwelF is a Material Design inspired theme aiming to provide a consistent and
minimalistic look to your device. This theme only supports FLOSS apps icons.

Suported launchers:

* Trebuchet
* Kiss
* Nova
* Apex
* Holo
* Asus
* Adw
* and many more
.

Repo Type:git
Repo:https://gitlab.com/xphnx/ameixa.git

Build:2.9.8-alpha,37
    commit=v2.9.8-alpha
    subdir=app
    gradle=yes

Build:3.0.6,45
    commit=v3.0.6
    subdir=app
    gradle=yes

Build:3.0.7,46
    commit=v3.0.7
    subdir=app
    gradle=yes

Build:3.0.8,47
    commit=v3.0.8
    subdir=app
    gradle=yes

Build:3.0.9,48
    commit=v3.0.9
    subdir=app
    gradle=yes

Build:3.1.1,51
    commit=v3.1.1
    subdir=app
    gradle=yes

Build:3.1.2,52
    commit=v3.1.2
    subdir=app
    gradle=yes

Build:3.1.3,53
    commit=v3.1.3
    subdir=app
    gradle=yes

Build:3.1.4,54
    commit=v3.1.4
    subdir=app
    gradle=yes

Build:3.1.5,55
    commit=v3.1.5
    subdir=app
    gradle=yes

Build:3.1.6,56
    commit=v3.1.6
    subdir=app
    gradle=yes

Build:3.1.7,57
    commit=v3.1.7
    subdir=app
    gradle=yes

Build:4.0.2,60
    commit=v4.0.2
    subdir=app
    gradle=yes

Build:4.0.3,403
    commit=v4.0.3
    subdir=app
    gradle=yes

Build:4.0.4,404
    commit=v4.0.4
    subdir=app
    gradle=yes

Build:4.0.5,405
    commit=v4.0.5
    subdir=app
    gradle=yes

Build:4.0.7,407
    commit=v4.0.7
    subdir=app
    gradle=yes

Auto Update Mode:Version v%v
Update Check Mode:Tags
Current Version:4.0.7
Current Version Code:407
